risc-processor.sim/sim_1/behav/xsim/simulate.log
Vivado Simulator 2019.1
Time resolution is 1 ps
 Block Memory Generator module loading initial data...
 Block Memory Generator data initialization complete.
Block Memory Generator module processor_Test.uut.ram.inst.native_mem_module.blk_mem_gen_v8_4_3_inst is using a behavioral model for simulation which will not precisely model memory collision behavior.
Opcode = x A = x B = x Output = x
OpReg = 0 DesReg = 0 S1Reg = 0 S2Reg = 0
Opcode = 0 A = 0 B = 0 Output = 0
OpReg = 0 DesReg = 0 S1Reg = 0 S2Reg = 0
Opcode = 0 A = 0 B = 0 Output = 0
OpReg = 0 DesReg =14 S1Reg =12 S2Reg =13
Opcode = 0 A =12 B =13 Output = 0
OpReg = 0 DesReg = 0 S1Reg = 0 S2Reg = 1
Opcode = 0 A = 0 B = 1 Output = 9
OpReg = 0 DesReg = 0 S1Reg = 0 S2Reg = 2
Opcode = 0 A = 0 B = 2 Output = 1
OpReg = 0 DesReg = 0 S1Reg = 0 S2Reg = 3
Opcode = 0 A = 0 B = 3 Output = 2
OpReg = 0 DesReg = 0 S1Reg = 0 S2Reg = 4
Opcode = 0 A = 0 B = 4 Output = 3
OpReg = 0 DesReg = 0 S1Reg = 0 S2Reg = 5
Opcode = 0 A = 0 B = 5 Output = 4
OpReg = 0 DesReg = 0 S1Reg = 0 S2Reg = 6
Opcode = 0 A = 0 B = 6 Output = 5
OpReg = 0 DesReg = 0 S1Reg = 0 S2Reg = 7
Opcode = 0 A = 0 B = 7 Output = 6
OpReg = 0 DesReg = 0 S1Reg = 0 S2Reg = 8
Opcode = 0 A = 0 B = 8 Output = 7
OpReg = 0 DesReg = 0 S1Reg = 0 S2Reg = 9
Opcode = 0 A = 0 B = 9 Output = 8
OpReg = 0 DesReg = 0 S1Reg = 0 S2Reg =10
Opcode = 0 A = 0 B =10 Output = 9
OpReg = 0 DesReg = 0 S1Reg = 0 S2Reg =11
Opcode = 0 A = 0 B =11 Output =10
OpReg = 0 DesReg = 0 S1Reg = 0 S2Reg =12
Opcode = 0 A = 0 B =12 Output =11
OpReg = 0 DesReg = 0 S1Reg = 0 S2Reg =13
Opcode = 0 A = 0 B =13 Output =12
OpReg = 0 DesReg = 0 S1Reg = 0 S2Reg =14
Opcode = 0 A = 0 B =14 Output =13
OpReg = 0 DesReg = 0 S1Reg = 0 S2Reg =15
Opcode = 0 A = 0 B =15 Output =14
OpReg = 0 DesReg = 0 S1Reg = 0 S2Reg = 0
Opcode = 0 A = 0 B = 0 Output =15
OpReg = 0 DesReg =14 S1Reg =12 S2Reg =13
Opcode = 0 A =12 B =13 Output = 0
OpReg = 0 DesReg =14 S1Reg =12 S2Reg =13
Opcode = 0 A =12 B =13 Output = 9
OpReg = 0 DesReg =14 S1Reg =12 S2Reg =13
Opcode = 0 A =12 B =13 Output = 9
OpReg = 0 DesReg =14 S1Reg =12 S2Reg =13
Opcode = 0 A =12 B =13 Output = 9
OpReg = 0 DesReg =14 S1Reg =12 S2Reg =13
Opcode = 0 A =12 B =13 Output = 9
OpReg = 0 DesReg =14 S1Reg =12 S2Reg =13
Opcode = 0 A =12 B =13 Output = 9
OpReg = 0 DesReg =14 S1Reg =12 S2Reg =13
Opcode = 0 A =12 B =13 Output = 9
OpReg = 0 DesReg =14 S1Reg =12 S2Reg =13
Opcode = 0 A =12 B =13 Output = 9
OpReg = 0 DesReg =14 S1Reg =12 S2Reg =13
Opcode = 0 A =12 B =13 Output = 9
OpReg = 0 DesReg =14 S1Reg =12 S2Reg =13
Opcode = 0 A =12 B =13 Output = 9
OpReg = 0 DesReg =14 S1Reg =12 S2Reg =13
Opcode = 0 A =12 B =13 Output = 9
OpReg = 0 DesReg =14 S1Reg =12 S2Reg =13
Opcode = 0 A =12 B =13 Output = 9
OpReg = 0 DesReg =14 S1Reg =12 S2Reg =13
Opcode = 0 A =12 B =13 Output = 9
OpReg = 0 DesReg =14 S1Reg =12 S2Reg =13
Opcode = 0 A =12 B =13 Output = 9
